PWD /Users/rabbit/Documents/website/cv
INPUT /usr/local/texlive/2018/texmf.cnf
INPUT /usr/local/texlive/2018/texmf-dist/web2c/texmf.cnf
INPUT /usr/local/texlive/2018/texmf-var/web2c/pdftex/pdflatex.fmt
INPUT CV.tex
OUTPUT CV.log
INPUT /usr/local/texlive/2018/texmf-dist/tex/latex/base/article.cls
INPUT /usr/local/texlive/2018/texmf-dist/tex/latex/base/article.cls
INPUT /usr/local/texlive/2018/texmf-dist/tex/latex/base/size10.clo
INPUT /usr/local/texlive/2018/texmf-dist/tex/latex/base/size10.clo
INPUT /usr/local/texlive/2018/texmf-dist/tex/latex/pbox/pbox.sty
INPUT /usr/local/texlive/2018/texmf-dist/tex/latex/pbox/pbox.sty
INPUT /usr/local/texlive/2018/texmf-dist/tex/latex/tools/calc.sty
INPUT /usr/local/texlive/2018/texmf-dist/tex/latex/tools/calc.sty
INPUT /usr/local/texlive/2018/texmf-dist/tex/latex/base/ifthen.sty
INPUT /usr/local/texlive/2018/texmf-dist/tex/latex/base/ifthen.sty
INPUT /usr/local/texlive/2018/texmf-dist/tex/latex/pdfpages/pdfpages.sty
INPUT /usr/local/texlive/2018/texmf-dist/tex/latex/pdfpages/pdfpages.sty
INPUT /usr/local/texlive/2018/texmf-dist/tex/latex/eso-pic/eso-pic.sty
INPUT /usr/local/texlive/2018/texmf-dist/tex/latex/eso-pic/eso-pic.sty
INPUT /usr/local/texlive/2018/texmf-dist/tex/generic/oberdiek/atbegshi.sty
INPUT /usr/local/texlive/2018/texmf-dist/tex/generic/oberdiek/atbegshi.sty
INPUT /usr/local/texlive/2018/texmf-dist/tex/generic/oberdiek/infwarerr.sty
INPUT /usr/local/texlive/2018/texmf-dist/tex/generic/oberdiek/infwarerr.sty
INPUT /usr/local/texlive/2018/texmf-dist/tex/generic/oberdiek/ltxcmds.sty
INPUT /usr/local/texlive/2018/texmf-dist/tex/generic/oberdiek/ltxcmds.sty
INPUT /usr/local/texlive/2018/texmf-dist/tex/generic/oberdiek/ifpdf.sty
INPUT /usr/local/texlive/2018/texmf-dist/tex/generic/oberdiek/ifpdf.sty
INPUT /usr/local/texlive/2018/texmf-dist/tex/latex/graphics/keyval.sty
INPUT /usr/local/texlive/2018/texmf-dist/tex/latex/graphics/keyval.sty
INPUT /usr/local/texlive/2018/texmf-dist/tex/latex/xcolor/xcolor.sty
INPUT /usr/local/texlive/2018/texmf-dist/tex/latex/xcolor/xcolor.sty
INPUT /usr/local/texlive/2018/texmf-dist/tex/latex/xcolor/xcolor.sty
INPUT /usr/local/texlive/2018/texmf-dist/tex/latex/graphics-cfg/color.cfg
INPUT /usr/local/texlive/2018/texmf-dist/tex/latex/graphics-cfg/color.cfg
INPUT /usr/local/texlive/2018/texmf-dist/tex/latex/graphics-def/pdftex.def
INPUT /usr/local/texlive/2018/texmf-dist/tex/latex/graphics-def/pdftex.def
INPUT /usr/local/texlive/2018/texmf-dist/tex/latex/graphics/graphicx.sty
INPUT /usr/local/texlive/2018/texmf-dist/tex/latex/graphics/graphicx.sty
INPUT /usr/local/texlive/2018/texmf-dist/tex/latex/graphics/graphics.sty
INPUT /usr/local/texlive/2018/texmf-dist/tex/latex/graphics/graphics.sty
INPUT /usr/local/texlive/2018/texmf-dist/tex/latex/graphics/trig.sty
INPUT /usr/local/texlive/2018/texmf-dist/tex/latex/graphics/trig.sty
INPUT /usr/local/texlive/2018/texmf-dist/tex/latex/graphics-cfg/graphics.cfg
INPUT /usr/local/texlive/2018/texmf-dist/tex/latex/graphics-cfg/graphics.cfg
INPUT /usr/local/texlive/2018/texmf-dist/tex/latex/pdfpages/pppdftex.def
INPUT /usr/local/texlive/2018/texmf-dist/tex/latex/pdfpages/pppdftex.def
INPUT /usr/local/texlive/2018/texmf-dist/tex/latex/geometry/geometry.sty
INPUT /usr/local/texlive/2018/texmf-dist/tex/latex/geometry/geometry.sty
INPUT /usr/local/texlive/2018/texmf-dist/tex/generic/oberdiek/ifvtex.sty
INPUT /usr/local/texlive/2018/texmf-dist/tex/generic/oberdiek/ifvtex.sty
INPUT /usr/local/texlive/2018/texmf-dist/tex/generic/ifxetex/ifxetex.sty
INPUT /usr/local/texlive/2018/texmf-dist/tex/generic/ifxetex/ifxetex.sty
INPUT /usr/local/texlive/2018/texmf-dist/tex/latex/hyperref/hyperref.sty
INPUT /usr/local/texlive/2018/texmf-dist/tex/latex/hyperref/hyperref.sty
INPUT /usr/local/texlive/2018/texmf-dist/tex/generic/oberdiek/hobsub-hyperref.sty
INPUT /usr/local/texlive/2018/texmf-dist/tex/generic/oberdiek/hobsub-hyperref.sty
INPUT /usr/local/texlive/2018/texmf-dist/tex/generic/oberdiek/hobsub-hyperref.sty
INPUT /usr/local/texlive/2018/texmf-dist/tex/generic/oberdiek/hobsub-generic.sty
INPUT /usr/local/texlive/2018/texmf-dist/tex/generic/oberdiek/hobsub-generic.sty
INPUT /usr/local/texlive/2018/texmf-dist/tex/latex/oberdiek/auxhook.sty
INPUT /usr/local/texlive/2018/texmf-dist/tex/latex/oberdiek/auxhook.sty
INPUT /usr/local/texlive/2018/texmf-dist/tex/latex/oberdiek/kvoptions.sty
INPUT /usr/local/texlive/2018/texmf-dist/tex/latex/oberdiek/kvoptions.sty
INPUT /usr/local/texlive/2018/texmf-dist/tex/latex/hyperref/pd1enc.def
INPUT /usr/local/texlive/2018/texmf-dist/tex/latex/hyperref/pd1enc.def
INPUT /usr/local/texlive/2018/texmf-dist/tex/latex/latexconfig/hyperref.cfg
INPUT /usr/local/texlive/2018/texmf-dist/tex/latex/latexconfig/hyperref.cfg
INPUT /usr/local/texlive/2018/texmf-dist/tex/latex/url/url.sty
INPUT /usr/local/texlive/2018/texmf-dist/tex/latex/url/url.sty
INPUT /usr/local/texlive/2018/texmf-dist/tex/latex/hyperref/hpdftex.def
INPUT /usr/local/texlive/2018/texmf-dist/tex/latex/hyperref/hpdftex.def
INPUT /usr/local/texlive/2018/texmf-dist/tex/latex/oberdiek/rerunfilecheck.sty
INPUT /usr/local/texlive/2018/texmf-dist/tex/latex/oberdiek/rerunfilecheck.sty
INPUT /usr/local/texlive/2018/texmf-dist/tex/latex/was/gensymb.sty
INPUT /usr/local/texlive/2018/texmf-dist/tex/latex/was/gensymb.sty
INPUT /usr/local/texlive/2018/texmf-dist/tex/latex/base/textcomp.sty
INPUT /usr/local/texlive/2018/texmf-dist/tex/latex/base/textcomp.sty
INPUT /usr/local/texlive/2018/texmf-dist/tex/latex/base/ts1enc.def
INPUT /usr/local/texlive/2018/texmf-dist/tex/latex/base/ts1enc.def
INPUT /usr/local/texlive/2018/texmf-dist/tex/latex/base/ts1enc.dfu
INPUT /usr/local/texlive/2018/texmf-dist/tex/latex/base/ts1enc.dfu
INPUT /usr/local/texlive/2018/texmf-dist/tex/latex/float/float.sty
INPUT /usr/local/texlive/2018/texmf-dist/tex/latex/float/float.sty
INPUT /usr/local/texlive/2018/texmf-dist/tex/latex/booktabs/booktabs.sty
INPUT /usr/local/texlive/2018/texmf-dist/tex/latex/booktabs/booktabs.sty
INPUT /usr/local/texlive/2018/texmf-dist/tex/latex/tools/tabularx.sty
INPUT /usr/local/texlive/2018/texmf-dist/tex/latex/tools/tabularx.sty
INPUT /usr/local/texlive/2018/texmf-dist/tex/latex/tools/array.sty
INPUT /usr/local/texlive/2018/texmf-dist/tex/latex/tools/array.sty
INPUT /usr/local/texlive/2018/texmf-dist/tex/latex/titlesec/titlesec.sty
INPUT /usr/local/texlive/2018/texmf-dist/tex/latex/titlesec/titlesec.sty
INPUT /usr/local/texlive/2018/texmf-dist/tex/latex/wrapfig/wrapfig.sty
INPUT /usr/local/texlive/2018/texmf-dist/tex/latex/wrapfig/wrapfig.sty
INPUT /usr/local/texlive/2018/texmf-dist/tex/latex/lipsum/lipsum.sty
INPUT /usr/local/texlive/2018/texmf-dist/tex/latex/lipsum/lipsum.sty
INPUT /usr/local/texlive/2018/texmf-dist/tex/generic/pdftex/glyphtounicode.tex
INPUT /usr/local/texlive/2018/texmf-dist/tex/generic/pdftex/glyphtounicode.tex
INPUT CV.aux
INPUT CV.aux
OUTPUT CV.aux
INPUT /usr/local/texlive/2018/texmf-dist/tex/latex/base/ts1cmr.fd
INPUT /usr/local/texlive/2018/texmf-dist/tex/latex/base/ts1cmr.fd
INPUT /usr/local/texlive/2018/texmf-dist/tex/context/base/mkii/supp-pdf.mkii
INPUT /usr/local/texlive/2018/texmf-dist/tex/context/base/mkii/supp-pdf.mkii
INPUT /usr/local/texlive/2018/texmf-dist/tex/latex/oberdiek/epstopdf-base.sty
INPUT /usr/local/texlive/2018/texmf-dist/tex/latex/oberdiek/epstopdf-base.sty
INPUT /usr/local/texlive/2018/texmf-dist/tex/latex/oberdiek/grfext.sty
INPUT /usr/local/texlive/2018/texmf-dist/tex/latex/oberdiek/grfext.sty
INPUT /usr/local/texlive/2018/texmf-dist/tex/latex/latexconfig/epstopdf-sys.cfg
INPUT /usr/local/texlive/2018/texmf-dist/tex/latex/latexconfig/epstopdf-sys.cfg
INPUT /usr/local/texlive/2018/texmf-dist/tex/latex/oberdiek/pdflscape.sty
INPUT /usr/local/texlive/2018/texmf-dist/tex/latex/oberdiek/pdflscape.sty
INPUT /usr/local/texlive/2018/texmf-dist/tex/latex/graphics/lscape.sty
INPUT /usr/local/texlive/2018/texmf-dist/tex/latex/graphics/lscape.sty
INPUT /usr/local/texlive/2018/texmf-dist/tex/latex/hyperref/nameref.sty
INPUT /usr/local/texlive/2018/texmf-dist/tex/latex/hyperref/nameref.sty
INPUT /usr/local/texlive/2018/texmf-dist/tex/generic/oberdiek/gettitlestring.sty
INPUT /usr/local/texlive/2018/texmf-dist/tex/generic/oberdiek/gettitlestring.sty
INPUT CV.out
INPUT CV.out
INPUT CV.out
INPUT CV.out
OUTPUT CV.pdf
INPUT ./CV.out
INPUT ./CV.out
OUTPUT CV.out
INPUT /usr/local/texlive/2018/texmf-dist/fonts/map/fontname/texfonts.map
INPUT /usr/local/texlive/2018/texmf-dist/fonts/tfm/public/cm/cmr17.tfm
INPUT /usr/local/texlive/2018/texmf-dist/fonts/tfm/public/cm/cmcsc10.tfm
INPUT /usr/local/texlive/2018/texmf-dist/fonts/tfm/public/cm/cmr8.tfm
INPUT /usr/local/texlive/2018/texmf-dist/fonts/tfm/public/cm/cmr6.tfm
INPUT /usr/local/texlive/2018/texmf-dist/fonts/tfm/public/cm/cmmi8.tfm
INPUT /usr/local/texlive/2018/texmf-dist/fonts/tfm/public/cm/cmmi6.tfm
INPUT /usr/local/texlive/2018/texmf-dist/fonts/tfm/public/cm/cmsy8.tfm
INPUT /usr/local/texlive/2018/texmf-dist/fonts/tfm/public/cm/cmsy6.tfm
INPUT /usr/local/texlive/2018/texmf-dist/fonts/tfm/jknappen/ec/tcrm0800.tfm
INPUT /usr/local/texlive/2018/texmf-dist/fonts/tfm/jknappen/ec/tcrm0600.tfm
INPUT /usr/local/texlive/2018/texmf-dist/fonts/tfm/jknappen/ec/tcrm0500.tfm
INPUT /usr/local/texlive/2018/texmf-dist/fonts/tfm/public/cm/cmr12.tfm
INPUT /usr/local/texlive/2018/texmf-dist/fonts/tfm/public/cm/cmbx12.tfm
INPUT /usr/local/texlive/2018/texmf-dist/fonts/tfm/jknappen/ec/tcrm1000.tfm
INPUT /usr/local/texlive/2018/texmf-dist/fonts/tfm/jknappen/ec/tcrm0700.tfm
INPUT /usr/local/texlive/2018/texmf-dist/fonts/tfm/public/cm/cmbx10.tfm
INPUT /usr/local/texlive/2018/texmf-dist/fonts/tfm/public/cm/cmti10.tfm
INPUT /usr/local/texlive/2018/texmf-dist/fonts/tfm/public/cm/cmtt10.tfm
INPUT /usr/local/texlive/2018/texmf-var/fonts/map/pdftex/updmap/pdftex.map
INPUT CV.aux
INPUT ./CV.out
INPUT ./CV.out
INPUT /usr/local/texlive/2018/texmf-dist/fonts/enc/dvips/cm-super/cm-super-ts1.enc
INPUT /usr/local/texlive/2018/texmf-dist/fonts/type1/public/amsfonts/cm/cmbx10.pfb
INPUT /usr/local/texlive/2018/texmf-dist/fonts/type1/public/amsfonts/cm/cmbx12.pfb
INPUT /usr/local/texlive/2018/texmf-dist/fonts/type1/public/amsfonts/cm/cmcsc10.pfb
INPUT /usr/local/texlive/2018/texmf-dist/fonts/type1/public/amsfonts/cm/cmr10.pfb
INPUT /usr/local/texlive/2018/texmf-dist/fonts/type1/public/amsfonts/cm/cmr8.pfb
INPUT /usr/local/texlive/2018/texmf-dist/fonts/type1/public/amsfonts/cm/cmsy6.pfb
INPUT /usr/local/texlive/2018/texmf-dist/fonts/type1/public/amsfonts/cm/cmti10.pfb
INPUT /usr/local/texlive/2018/texmf-dist/fonts/type1/public/amsfonts/cm/cmtt10.pfb
INPUT /usr/local/texlive/2018/texmf-dist/fonts/type1/public/cm-super/sfrm1000.pfb
