\relax 
\providecommand\hyper@newdestlabel[2]{}
\providecommand\HyperFirstAtBeginDocument{\AtBeginDocument}
\HyperFirstAtBeginDocument{\ifx\hyper@anchor\@undefined
\global\let\oldcontentsline\contentsline
\gdef\contentsline#1#2#3#4{\oldcontentsline{#1}{#2}{#3}}
\global\let\oldnewlabel\newlabel
\gdef\newlabel#1#2{\newlabelxx{#1}#2}
\gdef\newlabelxx#1#2#3#4#5#6{\oldnewlabel{#1}{{#2}{#3}}}
\AtEndDocument{\ifx\hyper@anchor\@undefined
\let\contentsline\oldcontentsline
\let\newlabel\oldnewlabel
\fi}
\fi}
\global\let\hyper@last\relax 
\gdef\HyperFirstAtBeginDocument#1{#1}
\providecommand\HyField@AuxAddToFields[1]{}
\providecommand\HyField@AuxAddToCoFields[2]{}
\ttl@writefile{ptc}{\ttl@starttoc{default@1}}
\@writefile{toc}{\contentsline {section}{\numberline {1}Technical Writing Experience}{2}{section.1}}
\@writefile{toc}{\contentsline {section}{\numberline {2}Education}{3}{section.2}}
\@writefile{toc}{\contentsline {subsection}{\numberline {2.1}Marks}{5}{subsection.2.1}}
\@writefile{toc}{\contentsline {section}{\numberline {3}Other Qualifications}{8}{section.3}}
\@writefile{toc}{\contentsline {subsection}{\numberline {3.1}Driving Licence}{8}{subsection.3.1}}
\@writefile{toc}{\contentsline {subsection}{\numberline {3.2}Sailing}{8}{subsection.3.2}}
\@writefile{toc}{\contentsline {subsection}{\numberline {3.3}Diving}{8}{subsection.3.3}}
\@writefile{toc}{\contentsline {subsubsection}{\numberline {3.3.1}Professional}{8}{subsubsection.3.3.1}}
\@writefile{toc}{\contentsline {subsubsection}{\numberline {3.3.2}Non-professional}{8}{subsubsection.3.3.2}}
\@writefile{toc}{\contentsline {subsection}{\numberline {3.4}Lifeguarding}{9}{subsection.3.4}}
\@writefile{toc}{\contentsline {subsection}{\numberline {3.5}Fitness Instructor}{9}{subsection.3.5}}
\@writefile{toc}{\contentsline {subsection}{\numberline {3.6}Law}{9}{subsection.3.6}}
\@writefile{toc}{\contentsline {subsection}{\numberline {3.7}Care}{10}{subsection.3.7}}
\@writefile{toc}{\contentsline {subsection}{\numberline {3.8}Security}{10}{subsection.3.8}}
\@writefile{toc}{\contentsline {subsection}{\numberline {3.9}Other Documents}{10}{subsection.3.9}}
\@writefile{toc}{\contentsline {subsubsection}{\numberline {3.9.1}Passport}{10}{subsubsection.3.9.1}}
\@writefile{toc}{\contentsline {subsubsection}{\numberline {3.9.2}Birth Certificate}{10}{subsubsection.3.9.2}}
\@writefile{toc}{\contentsline {subsubsection}{\numberline {3.9.3}National Insurance}{10}{subsubsection.3.9.3}}
\@writefile{toc}{\contentsline {section}{\numberline {4}Publications}{11}{section.4}}
\newlabel{sec:Publications}{{4}{11}{Publications}{section.4}{}}
\@writefile{toc}{\contentsline {section}{\numberline {5}Conference presentations}{11}{section.5}}
\@writefile{toc}{\contentsline {section}{\numberline {6}Invited talks}{12}{section.6}}
\@writefile{toc}{\contentsline {section}{\numberline {7}Honours and Awards}{12}{section.7}}
\@writefile{toc}{\contentsline {section}{\numberline {8}Funding and Grants}{13}{section.8}}
\@writefile{toc}{\contentsline {section}{\numberline {9}Supervision (S), co-supervision (C) and advisory (A) activities}{13}{section.9}}
\@writefile{toc}{\contentsline {section}{\numberline {10}Teaching}{13}{section.10}}
\@writefile{toc}{\contentsline {section}{\numberline {11}Professional Appointments}{14}{section.11}}
\@writefile{toc}{\contentsline {section}{\numberline {12}Society Membership}{14}{section.12}}
\@writefile{toc}{\contentsline {section}{\numberline {13}Continuing Professional Development}{14}{section.13}}
\@writefile{toc}{\contentsline {subsection}{\numberline {13.1}Cyber security}{14}{subsection.13.1}}
\@writefile{toc}{\contentsline {subsection}{\numberline {13.2}Academic}{15}{subsection.13.2}}
\@writefile{toc}{\contentsline {subsection}{\numberline {13.3}Technical}{15}{subsection.13.3}}
\@writefile{toc}{\contentsline {subsection}{\numberline {13.4}Legal}{15}{subsection.13.4}}
\@writefile{toc}{\contentsline {section}{\numberline {14}Legal Work Experience}{15}{section.14}}
\@writefile{toc}{\contentsline {section}{\numberline {15}Languages}{16}{section.15}}
\ttl@finishall
